[
   {
      "name" : "Andy Buckworth",
	  "img" : "andy-buckworth.jpg"
   },

   {
      "name" : "Brandon Loupos",
	  "img" : "brandon-loupos-1.jpg"
   },

   {
      "name" : "Brandon Loupos",
	  "img" : "brandon-loupos-2.jpg"
   },

   {
      "name" : "Dave Mirra",
	  "img" : "dave-mirra.jpg"
   },

   {
      "name" : "Harry Main",
	  "img" : "harry-main.jpg"
   },

   {
      "name" : "Logan Martin",
	  "img" : "logan-martin-1.jpg"
   },

   {
      "name" : "Logan Martin",
	  "img" : "logan-martin-2.png"
   },

   {
      "name" : "Logan Martin",
	  "img" : "logan-martin-3.jpg"
   },

   {
      "name" : "Mark Webb",
	  "img" : "mark-webb-1.jpg"
   },

   {
      "name" : "Mark Webb",
	  "img" : "mark-webb-2.jpg"
   },

   {
      "name" : "Matt Hoffman",
	  "img" : "matt-hoffman.jpg"
   },

   {
      "name" : "Pat Casey",
	  "img" : "pat-casey-1.jpg"
   },

   {
      "name" : "Pat Casey",
	  "img" : "pat-casey-2.jpg"
   }
]
